{
  "log_list1":[
    {"key":"1", "level":"告警","name":"RAC1","time":"2017-05-04 15:46:45","message":"Initiating Jersey application, version 'Jersey: 1.19.1 03/11/2016 02:42 PM'"},
    {"key":"2", "level":"告警","name":"RAC2","time":"2017-05-04 15:46:45","message":"Initiating Jersey application, version 'Jersey: 1.19.1 03/11/2016 02:42 PM'"},
    {"key":"3", "level":"错误","name":"RAC3","time":"2017-05-04 15:46:45","message":"Initiating Jersey application, version 'Jersey: 1.19.1 03/11/2016 02:42 PM'"},
    {"key":"4", "level":"错误","name":"RAC2","time":"2017-05-04 15:46:45","message":"Initiating Jersey application, version 'Jersey: 1.19.1 03/11/2016 02:42 PM'"},
    {"key":"5", "level":"错误","name":"RAC1","time":"2017-05-04 15:46:45","message":"Initiating Jersey application, version 'Jersey: 1.19.1 03/11/2016 02:42 PM'"},
    {"key":"6", "level":"告警","name":"InfiniBand1","time":"2017-05-04 15:46:45","message":"Initiating Jersey application, version 'Jersey: 1.19.1 03/11/2016 02:42 PM'"},
    {"key":"7", "level":"告警","name":"InfiniBand2","time":"2017-05-04 15:46:45","message":"Initiating Jersey application, version 'Jersey: 1.19.1 03/11/2016 02:42 PM'"},
    {"key":"8", "level":"告警","name":"RAC1","time":"2017-05-04 15:46:45","message":"Initiating Jersey application, version 'Jersey: 1.19.1 03/11/2016 02:42 PM'"},
    {"key":"9", "level":"告警","name":"RAC1","time":"2017-05-04 15:46:45","message":"Initiating Jersey application, version 'Jersey: 1.19.1 03/11/2016 02:42 PM'"},
    {"key":"10", "level":"告警","name":"RAC1","time":"2017-05-04 15:46:45","message":"Initiating Jersey application, version 'Jersey: 1.19.1 03/11/2016 02:42 PM'"}
  ],
  "log_list2":[
    {"id":"11", "level":"info","time":"2017-05-04 15:46:45","message":"Initiating Jersey application, version 'Jersey: 1.19.1 03/11/2016 02:42 PM'"},
    {"id":"21", "level":"info","time":"2017-05-04 15:46:45","message":"Initiating Jersey application, version 'Jersey: 1.19.1 03/11/2016 02:42 PM'"},
    {"id":"31", "level":"info","time":"2017-05-04 15:46:45","message":"Initiating Jersey application, version 'Jersey: 1.19.1 03/11/2016 02:42 PM'"},
    {"id":"41", "level":"info","time":"2017-05-04 15:46:45","message":"Initiating Jersey application, version 'Jersey: 1.19.1 03/11/2016 02:42 PM'"},
    {"id":"51", "level":"info","time":"2017-05-04 15:46:45","message":"Initiating Jersey application, version 'Jersey: 1.19.1 03/11/2016 02:42 PM'"},
    {"id":"61", "level":"info","time":"2017-05-04 15:46:45","message":"Initiating Jersey application, version 'Jersey: 1.19.1 03/11/2016 02:42 PM'"},
    {"id":"71", "level":"info","time":"2017-05-04 15:46:45","message":"Initiating Jersey application, version 'Jersey: 1.19.1 03/11/2016 02:42 PM'"},
    {"id":"81", "level":"info","time":"2017-05-04 15:46:45","message":"Initiating Jersey application, version 'Jersey: 1.19.1 03/11/2016 02:42 PM'"},
    {"id":"91", "level":"info","time":"2017-05-04 15:46:45","message":"Initiating Jersey application, version 'Jersey: 1.19.1 03/11/2016 02:42 PM'"},
    {"id":"101", "level":"info","time":"2017-05-04 15:46:45","message":"Initiating Jersey application, version 'Jersey: 1.19.1 03/11/2016 02:42 PM'"}
  ]
}